=== GET /api/admin/audit ===
{"success":true,"data":[{"id":51,"resourceId":726,"action":"delete","performedById":"xQqc7MDQhtKn2mObd4UDmsn7i95Qg48y","previousState":{"url":"https://example.com/ac-verify","title":"AC Verify Updated","status":"approved"},"newState":{"status":"rejected"},"createdAt":"2026-02-07T02:44:22.805Z","resource":{"id":726,"title":"AC Verify Updated","url":"https://example.com/ac-verify"},"performedBy":{"name":"AdminClean","email":"adminclean@test.com"}},{"id":50,"resourceId":726,"action":"update","performedById":"xQqc7MDQhtKn2mObd4UDmsn7i95Qg48y","previousState":{"url":"https://example.com/ac-verify","title":"AC Verify Resource","status":"approved","categoryId":1,"description":"AC verification test"},"newState":{"url":"https://example.com/ac-verify","title":"AC Verify Updated","status":"approved","categoryId":1,"description":"AC verification test"},"createdAt":"2026-02-07T02:44:22.780Z","resource":{"id":726,"title":"AC Verify Updated","url":"https://example.com/ac-verify"},"performedBy":{"name":"AdminClean","email":"adminclean@test.com"}},{"id":49,"resourceId":726,"action":"create","performedById":"xQqc7MDQhtKn2mObd4UDmsn7i95Qg48y","previousState":null,"newState":{"url":"https://example.com/ac-verify","title":"AC Verify Resource","status":"approved"},"createdAt":"2026-02-07T02:44:22.664Z","resource":{"id":726,"title":"AC Verify Updated","url":"https://example.com/ac-verify"},"performedBy":{"name":"AdminClean","email":"adminclean@test.com"}},{"id":48,"resourceId":725,"action":"delete","performedById":"xQqc7MDQhtKn2mObd4UDmsn7i95Qg48y","previousState":{"url":"https://example.com/bulk-del-3","title":"Bulk Delete Test 3","status":"approved"},"newState":{"status":"rejected"},"createdAt":"2026-02-07T02:42:38.800Z","resource":{"id":725,"title":"Bulk Delete Test 3","url":"https://example.com/bulk-del-3"},"performedBy":{"name":"AdminClean","email":"adminclean@test.com"}},{"id":47,"resourceId":724,"action":"delete","performedById":"xQqc7MDQhtKn2mObd4UDmsn7i95Qg48y","previousState":{"url":"https://example.com/bulk-del-2","title":"Bulk Delete Test 2","status":"approved"},"newState":{"status":"rejected"},"createdAt":"2026-02-07T02:42:38.774Z","resource":{"id":724,"title":"Bulk Delete Test 2","url":"https://example.com/bulk-del-2"},"performedBy":{"name":"AdminClean","email":"adminclean@test.com"}},{"id":46,"resourceId":723,"action":"delete","performedById":"xQqc7MDQhtKn2mObd4UDmsn7i95Qg48y","previousState":{"url":"https://example.com/bulk-del-1","title":"Bulk Delete Test 1","status":"approved"},"newState":{"status":"rejected"},"createdAt":"2026-02-07T02:42:38.750Z","resource":{"id":723,"title":"Bulk Delete Test 1","url":"https://example.com/bulk-del-1"},"performedBy":{"name":"AdminClean","email":"adminclean@test.com"}},{"id":45,"resourceId":725,"action":"create","performedById":"xQqc7MDQhtKn2mObd4UDmsn7i95Qg48y","previousState":null,"newState":{"url":"https://example.com/bulk-del-3","title":"Bulk Delete Test 3","status":"approved"},"createdAt":"2026-02-07T02:42:38.706Z","resource":{"id":725,"title":"Bulk Delete Test 3","url":"https://example.com/bulk-del-3"},"performedBy":{"name":"AdminClean","email":"adminclean@test.com"}},{"id":44,"resourceId":724,"action":"create","performedById":"xQqc7MDQhtKn2mObd4UDmsn7i95Qg48y","previousState":null,"newState":{"url":"https://example.com/bulk-del-2","title":"Bulk Delete Test 2","status":"approved"},"createdAt":"2026-02-07T02:42:38.662Z","resource":{"id":724,"title":"Bulk Delete Test 2","url":"https://example.com/bulk-del-2"},"performedBy":{"name":"AdminClean","email":"adminclean@test.com"}},{"id":43,"resourceId":723,"action":"create","performedById":"xQqc7MDQhtKn2mObd4UDmsn7i95Qg48y","previousState":null,"newState":{"url":"https://example.com/bulk-del-1","title":"Bulk Delete Test 1","status":"approved"},"createdAt":"2026-02-07T02:42:38.614Z","resource":{"id":723,"title":"Bulk Delete Test 1","url":"https://example.com/bulk-del-1"},"performedBy":{"name":"AdminClean","email":"adminclean@test.com"}},{"id":42,"resourceId":1,"action":"tag_delete","performedById":"xQqc7MDQhtKn2mObd4UDmsn7i95Qg48y","previousState":{"id":2,"name":"test-merge-target","slug":"test-merge-target"},"newState":null,"createdAt":"2026-02-07T02:41:56.802Z","resource":{"id":1,"title":"Eyevinn/abr-player-chrome","url":"https://github.com/Eyevinn/abr-player-chrome"},"performedBy":{"name":"AdminClean","email":"adminclean@test.com"}},{"id":41,"resourceId":1,"action":"tag_delete","performedById":"xQqc7MDQhtKn2mObd4UDmsn7i95Qg48y","previousState":{"id":3,"name":"alpha-test-tag","slug":"alpha-test-tag"},"newState":null,"createdAt":"2026-02-07T02:41:56.779Z","resource":{"id":1,"title":"Eyevinn/abr-player-chrome","url":"https://github.com/Eyevinn/abr-player-chrome"},"performedBy":{"name":"AdminClean","email":"adminclean@test.com"}},{"id":40,"resourceId":1,"action":"tag_merge","performedById":"xQqc7MDQhtKn2mObd4UDmsn7i95Qg48y","previousState":{"sourceTagIds":[4]},"newState":{"targetTagId":3,"targetTagName":"alpha-test-tag"},"createdAt":"2026-02-07T02:41:56.210Z","resource":{"id":1,"title":"Eyevinn/abr-player-chrome","url":"https://github.com/Eyevinn/abr-player-chrome"},"performedBy":{"name":"AdminClean","email":"adminclean@test.com"}},{"id":39,"resourceId":1,"action":"tag_create","performedById":"xQqc7MDQhtKn2mObd4UDmsn7i95Qg48y","previousState":null,"newState":{"id":4,"name":"merge-source-tag","slug":"merge-source-tag"},"createdAt":"2026-02-07T02:41:36.146Z","resource":{"id":1,"title":"Eyevinn/abr-player-chrome","url":"https://github.com/Eyevinn/abr-player-chrome"},"performedBy":{"name":"AdminClean","email":"adminclean@test.com"}},{"id":38,"resourceId":1,"action":"tag_create","performedById":"xQqc7MDQhtKn2mObd4UDmsn7i95Qg48y","previousState":null,"newState":{"id":3,"name":"alpha-test-tag","slug":"alpha-test-tag"},"createdAt":"2026-02-07T02:41:36.121Z","resource":{"id":1,"title":"Eyevinn/abr-player-chrome","url":"https://github.com/Eyevinn/abr-player-chrome"},"performedBy":{"name":"AdminClean","email":"adminclean@test.com"}},{"id":37,"resourceId":1,"action":"edit_approved","performedById":"xQqc7MDQhtKn2mObd4UDmsn7i95Qg48y","previousState":{"editId":2,"editType":"correction"},"newState":{"editId":2,"status":"approved","proposedChanges":[{"field":"description","newValue":"Chrome extension that uses Eyevinn HTML player to play HLS and MPEG-DASH natively","oldValue":"Chrome extension that uses Eyevinn HTML player"}]},"createdAt":"2026-02-07T02:41:17.606Z","resource":{"id":1,"title":"Eyevinn/abr-player-chrome","url":"https://github.com/Eyevinn/abr-player-chrome"},"performedBy":{"name":"AdminClean","email":"adminclean@test.com"}},{"id":36,"resourceId":1,"action":"user_unban","performedById":"xQqc7MDQhtKn2mObd4UDmsn7i95Qg48y","previousState":null,"newState":{"userId":"XsIFKmZdIjY1VQvEJar6u2s1biMVwAUH"},"createdAt":"2026-02-07T02:38:06.082Z","resource":{"id":1,"title":"Eyevinn/abr-player-chrome","url":"https://github.com/Eyevinn/abr-player-chrome"},"performedBy":{"name":"AdminClean","email":"adminclean@test.com"}},{"id":35,"resourceId":1,"action":"user_ban","performedById":"xQqc7MDQhtKn2mObd4UDmsn7i95Qg48y","previousState":null,"newState":{"reason":"Alpha test ban validation","userId":"XsIFKmZdIjY1VQvEJar6u2s1biMVwAUH"},"createdAt":"2026-02-07T02:38:06.029Z","resource":{"id":1,"title":"Eyevinn/abr-player-chrome","url":"https://github.com/Eyevinn/abr-player-chrome"},"performedBy":{"name":"AdminClean","email":"adminclean@test.com"}},{"id":34,"resourceId":1,"action":"category_delete","performedById":"xQqc7MDQhtKn2mObd4UDmsn7i95Qg48y","previousState":{"id":23},"newState":null,"createdAt":"2026-02-07T02:35:44.006Z","resource":{"id":1,"title":"Eyevinn/abr-player-chrome","url":"https://github.com/Eyevinn/abr-player-chrome"},"performedBy":{"name":"AdminClean","email":"adminclean@test.com"}},{"id":33,"resourceId":1,"action":"category_update","performedById":"xQqc7MDQhtKn2mObd4UDmsn7i95Qg48y","previousState":{"id":23},"newState":{"id":23,"name":"Renamed Alpha Category","slug":"renamed-alpha-category"},"createdAt":"2026-02-07T02:35:43.900Z","resource":{"id":1,"title":"Eyevinn/abr-player-chrome","url":"https://github.com/Eyevinn/abr-player-chrome"},"performedBy":{"name":"AdminClean","email":"adminclean@test.com"}},{"id":32,"resourceId":1,"action":"category_create","performedById":"xQqc7MDQhtKn2mObd4UDmsn7i95Qg48y","previousState":null,"newState":{"id":23,"name":"Test Category Alpha","slug":"test-category-alpha"},"createdAt":"2026-02-07T02:35:43.012Z","resource":{"id":1,"title":"Eyevinn/abr-player-chrome","url":"https://github.com/Eyevinn/abr-player-chrome"},"performedBy":{"name":"AdminClean","email":"adminclean@test.com"}}],"meta":{"total":39,"page":1,"limit":20,"hasMore":true}}
HTTP_STATUS: 200

