=== TASK 3.4: Admin Resources CRUD Validation ===
Date: 2026-02-09T03:54:59Z

--- Step 1: POST /api/admin/resources (Create) ---
HTTP Status: 201
{"success":true,"data":{"id":2676,"title":"Test Resource Validation","url":"https://example.com/test-resource","description":"Created for CRUD validation","categoryId":1,"subcategoryId":null,"subSubcategoryId":null,"status":"approved","submittedById":null,"approvedById":"xK6nKfysi7Qp88GSCm2gLeBaQo7nXxlg","approvedAt":"2026-02-09T03:54:59.096Z","ogImage":null,"blurhash":null,"githubSynced":false,"lastSyncedAt":null,"metadata":{},"createdAt":"2026-02-09T03:54:59.097Z","updatedAt":"2026-02-09T03:54:59.097Z","category":{"id":1,"name":"Intro & Learning","slug":"intro-learning","description":null,"icon":"📚","displayOrder":1},"subcategory":null,"subSubcategory":null,"tags":[]}}

--- Step 2: GET /api/admin/resources (List) ---
HTTP Status: 200
{"success":true,"data":[{"id":2676,"title":"Test Resource Validation","url":"https://example.com/test-resource","description":"Created for CRUD validation","categoryId":1,"subcategoryId":null,"subSubcategoryId":null,"status":"approved","submittedById":null,"approvedById":"xK6nKfysi7Qp88GSCm2gLeBaQo7nXxlg","approvedAt":"2026-02-09T03:54:59.096Z","ogImage":null,"blurhash":null,"githubSynced":false,"lastSyncedAt":null,"metadata":{},"createdAt":"2026-02-09T03:54:59.097Z","updatedAt":"2026-02-09T03:54:59.097Z","category":{"id":1,"name":"Intro & Learning","slug":"intro-learning","description":null,"icon":"📚","displayOrder":1},"subcategory":null,"subSubcategory":null,"tags":[]}],"meta":{"total":1,"page":1,"limit":3,"hasMore":false}}

--- Step 3: PUT /api/admin/resources/2676 (Update) ---
HTTP Status: 200
{"success":true,"data":{"id":2676,"title":"Updated Test Resource","url":"https://example.com/test-resource","description":"Created for CRUD validation","categoryId":1,"subcategoryId":null,"subSubcategoryId":null,"status":"approved","submittedById":null,"approvedById":"xK6nKfysi7Qp88GSCm2gLeBaQo7nXxlg","approvedAt":"2026-02-09T03:54:59.096Z","ogImage":null,"blurhash":null,"githubSynced":false,"lastSyncedAt":null,"metadata":{},"createdAt":"2026-02-09T03:54:59.097Z","updatedAt":"2026-02-09T03:55:12.918Z","category":{"id":1,"name":"Intro & Learning","slug":"intro-learning","description":null,"icon":"📚","displayOrder":1},"subcategory":null,"subSubcategory":null,"tags":[]}}

--- Step 4: DELETE /api/admin/resources/2676 ---
HTTP Status: 200
{"success":true,"data":{"deleted":true}}

--- Step 5: GET /api/admin/resources?search=video ---
HTTP Status: 200
{"success":true,"data":[{"id":718,"title":"video-dev/streams","url":"https://github.com/video-dev/streams","description":"A repository of shared streams - no media uploads.","categoryId":9,"subcategoryId":100,"subSubcategoryId":null,"status":"approved","submittedById":null,"approvedById":null,"approvedAt":null,"ogImage":null,"blurhash":null,"githubSynced":false,"lastSyncedAt":null,"metadata":{"tags":["community","streams","sharing","collaboration"],"sourceCategories":["community-groups"]},"createdAt":"2026-02-06T22:16:37.550Z","updatedAt":"2026-01-20T20:30:35.361Z","category":{"id":9,"name":"Community & Events","slug":"community-events","description":null,"icon":"👥","displayOrder":9},"subcategory":{"id":100,"name":"Community Groups","slug":"community-groups","description":null,"displayOrder":0,"categoryId":9},"subSubcategory":null,"tags":[]},{"id":711,"title":"Bitmovin Test Stream","url":"https://bitmovin.com/demos/stream-test","description":"Bitmovin's Test Player allows users to experience their HTML5 video player demo, showcasing adaptive streaming capabilities.","categoryId":4,"subcategoryId":91,"subSubcategoryId":null,"status":"approved","submittedById":null,"approvedById":null,"approvedAt":null,"ogImage":null,"blurhash":null,"githubSynced":false,"lastSyncedAt":null,"metadata":{"tags":["html5","player","adaptive streaming","web player","demo"],"sourceCategories":["mobile-web-players"]},"createdAt":"2026-02-06T22:16:37.532Z","updatedAt":"2026-01-20T20:30:59.159Z","category":{"id":4,"name":"Players & Clients","slug":"players-clients","description":null,"icon":"▶️","displayOrder":4},"subcategory":{"id":91,"name":"Mobile & Web Players","slug":"mobile-web-players","description":null,"displayOrder":0,"categoryId":4},"subSubcategory":null,"tags":[]},{"id":708,"title":"4K Media | Free Ultra-HD / HDR / HLG / Dolby Vision 4K Video Demos","url":"https://4kmedia.org/","description":"Uncompressed 4K demos, samples, and trailers, to show off your new ultra-HD (2160p) HDR/HLG/Dolby Vision television or monitor.","categoryId":5,"subcategoryId":null,"subSubcategoryId":null,"status":"approved","submittedById":null,"approvedById":null,"approvedAt":null,"ogImage":null,"blurhash":null,"githubSynced":false,"lastSyncedAt":null,"metadata":{"tags":["4K","HDR","demo","video samples","ultra-HD","display testing"],"sourceCategories":["media-tools"]},"createdAt":"2026-02-06T22:16:37.524Z","updatedAt":"2026-01-20T20:30:28.652Z","category":{"id":5,"name":"Media Tools","slug":"media-tools","description":null,"icon":"🛠️","displayOrder":5},"subcategory":null,"subSubcategory":null,"tags":[]}],"meta":{"total":1179,"page":1,"limit":3,"hasMore":true}}

